id;fichier;fichier_content_type;nom;membres_id;tache_id
1;../fake-data/blob/hipster.png;image/png;COM Investment Account invoice;1;1
2;../fake-data/blob/hipster.png;image/png;Security;2;2
3;../fake-data/blob/hipster.png;image/png;secondary schemas Guatemala;3;3
4;../fake-data/blob/hipster.png;image/png;Mission Markets client-server;4;4
5;../fake-data/blob/hipster.png;image/png;Hat Rustic Fresh;5;5
6;../fake-data/blob/hipster.png;image/png;orange;6;6
7;../fake-data/blob/hipster.png;image/png;Hat;7;7
8;../fake-data/blob/hipster.png;image/png;Investor;8;8
9;../fake-data/blob/hipster.png;image/png;Cheese Function-based Practical;9;9
10;../fake-data/blob/hipster.png;image/png;Bacon Usability;10;10
