id;name;color;projet_id
1;deposit;gold;1
2;repurpose Engineer;indigo;2
3;Investment Account;grey;3
4;invoice;azure;4
5;Lebanese Pound;gold;5
6;encompassing Bedfordshire application;fuchsia;6
7;white;cyan;7
8;Kazakhstan Bedfordshire web-readiness;green;8
9;primary;maroon;9
10;Finland Graphical User Interface French Polynesia;salmon;10
