id;date_heure;emetteur_id;destinataire_id;type_notification_id
1;2020-06-21T22:09:52;1;1;1
2;2020-06-21T23:22:30;1;2;2
3;2020-06-22T03:12:54;1;2;3
4;2020-06-21T13:43:43;1;2;4
5;2020-06-22T01:34:18;2;2;5
6;2020-06-21T18:55:00;2;1;6
7;2020-06-22T04:52:24;1;2;7
8;2020-06-21T12:00:21;2;1;8
9;2020-06-21T12:02:17;1;1;9
10;2020-06-22T07:04:26;2;1;10
