id;titre;date_debut;date_fin;description;modele;etat;visible;user_id
1;Technician;2020-04-22;2020-04-22;New Mexico;RSS Investment Account Delaware;true;true;2
2;mobile facilitate withdrawal;2020-04-22;2020-04-22;mobile vortals;withdrawal;true;false;2
3;THX orchestration;2020-04-23;2020-04-23;e-services;Buckinghamshire Future;true;false;1
4;bluetooth Croatia;2020-04-22;2020-04-23;Togo;array;false;true;2
5;green Outdoors;2020-04-22;2020-04-22;fault-tolerant;leading-edge;false;false;1
6;tangible Consultant Industrial;2020-04-22;2020-04-22;matrix;Forward Gorgeous;true;true;1
7;parse;2020-04-23;2020-04-22;withdrawal;Rustic Cotton Shirt Refined channels;true;true;2
8;Sports backing up;2020-04-22;2020-04-23;Fundamental calculating;Lead;false;false;1
9;Chair;2020-04-22;2020-04-22;haptic payment;Dale;true;true;1
10;forecast Thailand mint green;2020-04-23;2020-04-22;Programmable Music;Corporate;true;false;1
